{
  "schemaVersion": 1,
  "id": "desiredservers",
  "version": "${version}",
  "name": "Desired Servers",
  "description": "Featured Servers Deus Ex. Thank You Jake Evans for the original mod and the GPLv3 license.",
  "authors": ["Kreezxil", "Eleksploded"],
  "contact": {
    "homepage": "https://www.curseforge.com/minecraft/mc-mods/desired-servers-fabric",
    "sources": "https://gitlab.com/kreezxil/desired-servers/",
    "issues": "https://gitlab.com/kreezxil/desired-servers/issues"
  },
  "license": "GPL-3.0",
  "icon": "assets/desiredservers/icon.png",
  "environment": "client",
  "entrypoints": {
    "client": [
      "com.kreezcraft.desiredservers.client.DesiredserversClient"
    ],
    "main": [
      "com.kreezcraft.desiredservers.Desiredservers"
    ]
  },
  "depends": {
"fabricloader": ">=0.7.4",
    "fabric": "*",
    "minecraft": "1.16.x"
  }
}
